[{
	"_id": "1",
  "image":"http://www.google.com",
	"titre": "Robust Machine Readable Codes",
	"description": "Having machine-readable codes on things helps make them look like industrial or military equipment from the future",
	"date": 2013,
	"auteur": "Ben Lincoln",
	"origine": "USA",
	"usage": "internet",
	"categorie": "enginnering, autoproduction",
	"tags": "computer, barcode",
	"signes": 2,
	"meta": 1,
	"chonologie": 2,
	"technique":4,
	"diffusion": {
		"zone":  4,
		"communaute": 1
	},
	"lecture": {
		"interaction": 4,
		"type": 1,
		"machine": 5,
		"humaine":1
	},
	"signe": {
		"zone":3,
		"forme":2,
		"ecriture":1
	},
	"message":{
		"audience":2,
		"type": 1
	}
},
{
	"_id": "2",
  "image":"http://www.google.com",
	"titre": "Score for Cybernetics",
	"description": "Having machine-readable codes on things helps make them look like industrial or military equipment from the future",
	"date": 1954,
	"auteur": "Roland Kayn",
	"origine": "USA",
	"usage": "internet",
	"categorie": "enginnering, autoproduction, cybernetique",
	"tags": "computer, barcode",
	"signes": 150,
	"meta": 2,
	"chonologie": 3,
	"technique":1,
	"diffusion": {
		"zone":  2,
		"communaute": 2
	},
	"lecture": {
		"interaction": 2,
		"type": 3,
		"machine": 2,
		"humaine":3
	},
	"signe": {
		"zone":1,
		"forme":3,
		"ecriture":3
	},
	"message":{
		"audience":1,
		"type": 3
	}
},
{
	"_id": "3",
  "image":"http://www.google.com",
	"titre": "Reverse OCR",
	"description": "Having machine-readable codes on things helps make them look like industrial or military equipment from the future",
	"date": 2014,
	"auteur": "Darius Kazemi",
	"origine": "USA",
	"usage": "internet",
	"categorie": "autoproduction",
	"tags": "computer",
	"signes": 24,
	"meta": 1,
	"chonologie": 2,
	"technique":3,
	"diffusion": {
		"zone":  1,
		"communaute": 4
	},
	"lecture": {
		"interaction": 1,
		"type": 4,
		"machine": 3,
		"humaine":1
	},
	"signe": {
		"zone":2,
		"forme":1,
		"ecriture":3
	},
	"message":{
		"audience":2,
		"type": 1
	}
}
]
